%YAML 1.1
%TAG !u! tag:unity3d.com,2011:
--- !u!1001 &100100000
Prefab:
  m_ObjectHideFlags: 1
  serializedVersion: 2
  m_Modification:
    m_TransformParent: {fileID: 0}
    m_Modifications: []
    m_RemovedComponents: []
  m_SourcePrefab: {fileID: 0}
  m_RootGameObject: {fileID: 1370462747857634}
  m_IsPrefabAsset: 1
--- !u!1 &1370462747857634
GameObject:
  m_ObjectHideFlags: 0
  m_CorrespondingSourceObject: {fileID: 0}
  m_PrefabInternal: {fileID: 100100000}
  serializedVersion: 6
  m_Component:
  - component: {fileID: 4489927701392112}
  - component: {fileID: 114253275718926004}
  m_Layer: 0
  m_Name: ERSideObjectsLog
  m_TagString: Untagged
  m_Icon: {fileID: 0}
  m_NavMeshLayer: 0
  m_StaticEditorFlags: 0
  m_IsActive: 1
--- !u!4 &4489927701392112
Transform:
  m_ObjectHideFlags: 1
  m_CorrespondingSourceObject: {fileID: 0}
  m_PrefabInternal: {fileID: 100100000}
  m_GameObject: {fileID: 1370462747857634}
  m_LocalRotation: {x: 0, y: 0, z: 0, w: 1}
  m_LocalPosition: {x: 0, y: 0, z: 0}
  m_LocalScale: {x: 1, y: 1, z: 1}
  m_Children: []
  m_Father: {fileID: 0}
  m_RootOrder: 0
  m_LocalEulerAnglesHint: {x: 0, y: 0, z: 0}
--- !u!114 &114253275718926004
MonoBehaviour:
  m_ObjectHideFlags: 1
  m_CorrespondingSourceObject: {fileID: 0}
  m_PrefabInternal: {fileID: 100100000}
  m_GameObject: {fileID: 1370462747857634}
  m_Enabled: 1
  m_EditorHideFlags: 0
  m_Script: {fileID: 353395545, guid: f56d46228aee4734f9114056c53bb57e, type: 3}
  m_Name: 
  m_EditorClassIdentifier: 
  QOQDQOOQDDQOOQ: []
  ints: 
  roadPresets:
  - roadTypeName: Default Road 1
    id: 0
    timestamp: 1450386558.4872544
    roadWidth: 5
    faceDistance: 4
    angleTreshold: 45
    uvTiling: 1
    uv4Type: 0
    detailDistance: 0
    planarUVs: 0
    outerIndent: 0
    roadShapeDataActive: 0
    roadShapeData:
      nodes: []
      lanes: []
      symmetrical: 0
      leftSidewalkOffset: 0
      rightSidewalkOffset: 0
      selectedNode: 0
      selectedLaneNode: 0
    roadShape: []
    roadShapeExt: []
    doConnectionTri: 
    roadShapeUVs: []
    roadShapeExtUVs: []
    roadShapeUVs2: []
    hardEdge: 
    roadShapeVecsString: 
    defaultSidewalk: 0
    sidewalks: 0
    sidewalkHeight: 0.2
    sidewalkWidth: 2
    roadMaterial: {fileID: 2100000, guid: f182e2714eb8a714a99ed091081ce16c, type: 2}
    roadMaterials: []
    roadPhysicsMaterial: {fileID: 2100000, guid: f182e2714eb8a714a99ed091081ce16c,
      type: 2}
    roadPhysicsMaterials: []
    connectionMaterial: {fileID: 2100000, guid: 3c555588afad81d428ad1704d5d015a7,
      type: 2}
    isSideObject: 0
    isCustomRoad: 0
    subSegments: 0
    soData: []
    soDataExt: []
    soDataLog: []
    layer: 0
    tag: 
    splatMapActive: 0
    splatIndex: 0
    expandLevel: 0
    smoothLevel: 0
    splatOpacity: 0
    terrainDeformation: 1
    castShadow: 0
    randomnessFlag: 0
    randomYPosition: 0
    randomMinYPosition: 0
    randomMaxYPosition: 0
    minRandomYPositionDistance: 0
    maxRandomYPositionDistance: 0
    randomMinRotation: 0
    randomMaxRotation: 0
    minRandomRotationDistance: 0
    maxRandomRotationDistance: 0
    vegetationStudioGrassPerimeter: 0
    vegetationStudioPlantPerimeter: 0
    vegetationStudioTreePerimeter: 0
    vegetationStudioObjectPerimeter: 0
    vegetationStudioLargeObjectPerimeter: 0
    decalPresets: []
    decalClassPresets: []
  crossingCornerPresets: []
  sidewalkPresets: []
  textureData: []
  updateInt: 2
